{
    "id":"42e376c5-6e93-44f8-b099-04bc8b091ad7",
    "schema":"https://metadata.datadrivendiscovery.org/schemas/v0/pipeline.json",
    "created":"2019-06-05T03:44:33.899641Z",
    "inputs":[
        {
            "name":"input dataset"
        }
    ],
    "outputs":[
        {
            "data":"steps.6.produce",
            "name":"predictions of input dataset"
        }
    ],
    "steps":[
        {
            "type":"PRIMITIVE",
            "primitive":{
                "id":"f31f8c1f-d1c5-43e5-a4b2-2ae4a761ef2e",
                "version":"0.2.0",
                "python_path":"d3m.primitives.data_transformation.denormalize.Common",
                "name":"Denormalize datasets",
                "digest":"406f9beb9ad211f4fde228be374f07a427d6b2b45aba4f1f4ac1b5510ae84e3e"
            },
            "arguments":{
                "inputs":{
                    "type":"CONTAINER",
                    "data":"inputs.0"
                }
            },
            "outputs":[
                {
                    "id":"produce"
                }
            ],
            "hyperparams":{
                "starting_resource":{
                    "type":"VALUE",
                    "data":null
                },
                "recursive":{
                    "type":"VALUE",
                    "data":true
                },
                "many_to_many":{
                    "type":"VALUE",
                    "data":false
                },
                "discard_not_joined_tabular_resources":{
                    "type":"VALUE",
                    "data":false
                }
            }
        },
        {
            "type":"PRIMITIVE",
            "primitive":{
                "id":"dbb3792d-a44b-4941-a88e-5520c0a23488",
                "version":"0.1.0",
                "python_path":"d3m.primitives.data_transformation.normalize_graphs.Common",
                "name":"Normalize graphs",
                "digest":"19b36c34cf5b5bdbd9e9c9af319e409893b1dc6538da0e2b1b1ab660abcf7979"
            },
            "arguments":{
                "inputs":{
                    "type":"CONTAINER",
                    "data":"steps.0.produce"
                }
            },
            "outputs":[
                {
                    "id":"produce"
                }
            ]
        },
        {
            "type":"PRIMITIVE",
            "primitive":{
                "id":"dfb8c278-5382-47cd-bd39-f9429890a239",
                "version":"1.0.0",
                "python_path":"d3m.primitives.data_transformation.graph_to_edge_list.DSBOX",
                "name":"Extract graph tables from Dataset into list of DataFrame",
                "digest":"7d4ac2ca05dc06953b2df24b68a3d36ce2f9e8d7c5b7ec07862eb1e943a50c4a"
            },
            "arguments":{
                "inputs":{
                    "type":"CONTAINER",
                    "data":"steps.1.produce"
                }
            },
            "outputs":[
                {
                    "id":"produce"
                }
            ]
        },
        {
            "type":"PRIMITIVE",
            "primitive":{
                "id":"4b42ce1e-9b98-4a25-b68e-fad13311eb65",
                "version":"0.3.0",
                "python_path":"d3m.primitives.data_transformation.dataset_to_dataframe.Common",
                "name":"Extract a DataFrame from a Dataset",
                "digest":"262d651c0711efd819511cb67355d9c247c7c44470c2281fa495e8701d5d3ecb"
            },
            "arguments":{
                "inputs":{
                    "type":"CONTAINER",
                    "data":"steps.0.produce"
                }
            },
            "outputs":[
                {
                    "id":"produce"
                }
            ]
        },
        {
            "type":"PRIMITIVE",
            "primitive":{
                "id":"4503a4c6-42f7-45a1-a1d4-ed69699cf5e1",
                "version":"0.2.0",
                "python_path":"d3m.primitives.data_transformation.extract_columns_by_semantic_types.DataFrameCommon",
                "name":"Extracts columns by semantic type",
                "digest":"8d9e45e2eca7ac7a5510df443b041449cb558e751dd3876223b25f9f590246e3"
            },
            "arguments":{
                "inputs":{
                    "type":"CONTAINER",
                    "data":"steps.3.produce"
                }
            },
            "outputs":[
                {
                    "id":"produce"
                }
            ],
            "hyperparams":{
                "semantic_types":{
                    "type":"VALUE",
                    "data":[
                        "https://metadata.datadrivendiscovery.org/types/TrueTarget"
                    ]
                }
            }
        },
        {
            "type":"PRIMITIVE",
            "primitive":{
                "id":"48572851-b86b-4fda-961d-f3f466adb58e",
                "version":"1.0.0",
                "python_path":"d3m.primitives.feature_construction.graph_transformer.GCN",
                "name":"GCN",
                "digest":"0fac4a956488c6285c6b5e1ee853bf78297e67693764f0492301f91bf04000ef"
            },
            "arguments":{
                "inputs":{
                    "type":"CONTAINER",
                    "data":"steps.2.produce"
                },
                "outputs":{
                    "type":"CONTAINER",
                    "data":"steps.4.produce"
                }
            },
            "outputs":[
                {
                    "id":"produce"
                }
            ]
        },
        {
            "type":"PRIMITIVE",
            "primitive":{
                "id":"1dd82833-5692-39cb-84fb-2455683075f3",
                "version":"v2019.4.4",
                "python_path":"d3m.primitives.classification.random_forest.SKlearn",
                "name":"sklearn.ensemble.forest.RandomForestClassifier",
                "digest":"7ea6cf52c696329ea9270dfc9d1cea219de388b5714ad850c6a055bd9b699ed9"
            },
            "arguments":{
                "inputs":{
                    "type":"CONTAINER",
                    "data":"steps.5.produce"
                },
                "outputs":{
                    "type":"CONTAINER",
                    "data":"steps.4.produce"
                }
            },
            "outputs":[
                {
                    "id":"produce"
                }
            ],
            "hyperparams":{
                "max_depth":{
                    "type":"VALUE",
                    "data":{
                        "case":"int",
                        "value":30
                    }
                },
                "min_samples_leaf":{
                    "type":"VALUE",
                    "data":{
                        "case":"absolute",
                        "value":2
                    }
                },
                "min_samples_split":{
                    "type":"VALUE",
                    "data":{
                        "case":"absolute",
                        "value":2
                    }
                },
                "max_features":{
                    "type":"VALUE",
                    "data":{
                        "case":"calculated",
                        "value":"sqrt"
                    }
                },
                "n_estimators":{
                    "type":"VALUE",
                    "data":100
                },
                "add_index_columns":{
                    "type":"VALUE",
                    "data":true
                },
                "use_semantic_types":{
                    "type":"VALUE",
                    "data":false
                },
                "error_on_no_input":{
                    "type":"VALUE",
                    "data":true
                }
            }
        }
    ],
    "name":"ISI_gcn:140244824113296",
    "description":"",
    "digest":"e55fbfb13e9d0e851477fa7f83175178289e03d4178f71e4487d3daa72d76464",
    "pipeline_rank":1.0,
    "metric":"accuracy",
    "metric_value":1.0,
    "template_name":"ISI_gcn",
    "template_task":"{'LINK_PREDICTION', 'COMMUNITY_DETECTION', 'VERTEX_NOMINATION', 'COLLABORATIVE_FILTERING'}",
    "template_subtask":"{'OVERLAPPING', 'NONE', 'NONOVERLAPPING'}",
    "problem_taskType":"vertexNomination",
    "problem_taskSubType":"NONE"
}